<svg 
 xmlns="http://www.w3.org/2000/svg"
 xmlns:xlink="http://www.w3.org/1999/xlink"
 width="49px" height="47px">
<path fill-rule="evenodd"  fill="rgb(255, 255, 255)"
 d="M25.501,47.000 C18.977,47.000 12.915,44.390 8.429,39.650 C8.050,39.248 8.068,38.616 8.468,38.236 C8.870,37.857 9.503,37.875 9.882,38.275 C13.986,42.612 19.533,45.000 25.501,45.000 C37.355,45.000 47.000,35.355 47.000,23.500 C47.000,11.645 37.355,2.000 25.501,2.000 C19.589,2.000 14.078,4.351 9.984,8.618 C9.601,9.017 8.968,9.030 8.570,8.647 C8.171,8.265 8.158,7.632 8.540,7.233 C13.015,2.569 19.039,0.000 25.501,0.000 C38.458,0.000 49.000,10.542 49.000,23.500 C49.000,36.458 38.458,47.000 25.501,47.000 ZM12.624,22.500 L33.910,22.500 C34.462,22.500 34.910,22.948 34.910,23.500 C34.910,24.052 34.462,24.500 33.910,24.500 L30.354,24.500 L30.354,27.879 C30.354,28.432 29.906,28.879 29.354,28.879 C28.802,28.879 28.354,28.432 28.354,27.879 L28.354,24.500 L24.746,24.500 L24.746,30.964 C24.746,31.516 24.299,31.964 23.746,31.964 C23.194,31.964 22.746,31.516 22.746,30.964 L22.746,24.500 L12.623,24.500 C12.139,27.531 9.528,29.861 6.363,29.861 C2.854,29.861 -0.000,27.006 -0.000,23.498 C-0.000,19.990 2.854,17.136 6.363,17.136 C9.529,17.136 12.141,19.467 12.624,22.500 ZM6.363,19.136 C3.957,19.136 2.000,21.093 2.000,23.498 C2.000,25.904 3.957,27.861 6.363,27.861 C8.768,27.861 10.725,25.904 10.725,23.498 C10.725,21.093 8.768,19.136 6.363,19.136 Z"/>
</svg>