<svg 
 xmlns="http://www.w3.org/2000/svg"
 xmlns:xlink="http://www.w3.org/1999/xlink"
 width="52px" height="51px">
<path fill-rule="evenodd"  fill="rgb(255, 255, 255)"
 d="M45.698,25.417 L45.698,46.564 C45.698,47.069 45.320,47.496 44.816,47.558 L17.039,50.990 C16.998,50.996 16.957,50.998 16.915,50.998 C16.795,50.998 16.678,50.970 16.566,50.928 C16.530,50.915 16.499,50.898 16.466,50.881 C16.430,50.862 16.390,50.852 16.356,50.829 L1.406,40.885 C1.126,40.699 0.959,40.387 0.959,40.052 L0.959,13.827 C0.959,13.754 0.972,13.683 0.988,13.613 C0.990,13.601 0.989,13.588 0.992,13.576 C1.021,13.466 1.073,13.365 1.136,13.271 C1.153,13.247 1.170,13.226 1.189,13.203 C1.251,13.127 1.322,13.060 1.406,13.003 C1.421,12.993 1.433,12.980 1.448,12.971 C1.454,12.968 1.458,12.963 1.463,12.959 C1.562,12.903 1.669,12.870 1.778,12.850 C1.790,12.848 1.799,12.840 1.811,12.838 L24.873,9.280 C26.782,3.885 31.942,0.001 38.009,0.001 C45.693,0.001 51.945,6.221 51.945,13.865 C51.945,18.683 49.459,22.931 45.698,25.417 ZM17.922,48.863 L43.685,45.680 L43.685,26.515 C41.949,27.289 40.031,27.729 38.009,27.729 C33.496,27.729 29.488,25.574 26.940,22.253 L17.922,23.339 L17.922,48.863 ZM2.972,39.517 L15.909,48.123 L15.909,23.029 L2.972,15.566 L2.972,39.517 ZM20.847,11.928 L24.081,14.028 C24.081,13.973 24.073,13.920 24.073,13.865 C24.073,13.021 24.161,12.197 24.307,11.394 L20.847,11.928 ZM24.347,16.592 L17.871,12.387 L4.935,14.383 L17.129,21.417 L25.716,20.383 C25.085,19.209 24.618,17.936 24.347,16.592 ZM38.009,2.004 C31.435,2.004 26.086,7.325 26.086,13.865 C26.086,20.405 31.435,25.726 38.009,25.726 C44.584,25.726 49.932,20.405 49.932,13.865 C49.932,7.325 44.584,2.004 38.009,2.004 ZM37.962,19.295 C37.769,19.588 37.448,19.749 37.118,19.749 C36.949,19.749 36.776,19.706 36.619,19.617 L31.397,16.644 C30.914,16.369 30.747,15.757 31.023,15.277 C31.299,14.796 31.914,14.631 32.397,14.905 L36.795,17.409 L42.914,8.091 C43.219,7.628 43.842,7.499 44.307,7.800 C44.773,8.103 44.904,8.723 44.600,9.186 L37.962,19.295 Z"/>
</svg>