<!-- Generator: Adobe Illustrator 21.1.0, SVG Export Plug-In  -->
<svg version="1.1"
	 xmlns="http://www.w3.org/2000/svg" xmlns:xlink="http://www.w3.org/1999/xlink" xmlns:a="http://ns.adobe.com/AdobeSVGViewerExtensions/3.0/"
	 x="0px" y="0px" width="56px" height="52px" viewBox="0 0 56 52" style="enable-background:new 0 0 56 52;" xml:space="preserve">
<style type="text/css">
	.st0{fill:#FFFFFF;}
</style>
<defs>
</defs>
<g>
	<path class="st0" d="M56,8c-0.1-0.3-0.3-0.5-0.5-0.6L39.6,0.1c-0.5-0.2-1-0.1-1.3,0.4l-5.8,9.2l-16.2,1.8l-0.9-2.2
		c-0.1-0.2-0.3-0.4-0.5-0.5L1.4,2C1.1,1.9,0.6,1.9,0.3,2.2C0,2.5-0.1,2.9,0.1,3.3l4.3,11.8v26c0,0.3,0.2,0.6,0.4,0.8l14.9,9.9
		c0,0,0.1,0,0.1,0.1c0,0,0.1,0,0.1,0c0.1,0,0.2,0.1,0.3,0.1c0,0,0.1,0,0.1,0L48,48.6c0.5-0.1,0.9-0.5,0.9-1V20.4l7.1-11.6
		C56,8.6,56.1,8.3,56,8z M32.8,11.6c0.1,0,0.1,0,0.2,0l12,7.8l-24.1,2.9l-3.7-9L32.8,11.6z M13.8,10.4l4.4,10.7l-12-6.9L2.8,5
		L13.8,10.4z M6.4,16.6l12.9,7.5v25.1L6.4,40.5V16.6z M46.8,46.7l-25.6,3.2V24.4l25.6-3.1V46.7z M47.5,18.8l-13-8.5l5.1-8l14,6.5
		L47.5,18.8z"/>
	<path class="st0" d="M26.2,35.6c-0.1,0.1-0.1,0.2-0.2,0.3c0,0,0,0,0,0.1c0,0.1,0,0.2,0,0.3c0,0,0,0,0,0c0,0,0,0,0,0
		c0,0.1,0.1,0.3,0.1,0.4c0,0,0,0.1,0.1,0.1c0.1,0.1,0.1,0.2,0.2,0.2c0,0,0,0,0.1,0.1l6.7,4c0.2,0.1,0.3,0.1,0.5,0.1
		c0.3,0,0.7-0.2,0.9-0.5c0.3-0.5,0.1-1.1-0.4-1.4L30,36.8l9.4-1c0.5-0.1,0.9-0.6,0.9-1.1c-0.1-0.5-0.6-0.9-1.1-0.9l-9.3,1l3.5-3.1
		c0.4-0.4,0.4-1,0.1-1.4c-0.4-0.4-1-0.4-1.4-0.1l-5.8,5.2C26.2,35.5,26.2,35.5,26.2,35.6C26.2,35.5,26.2,35.6,26.2,35.6z"/>
</g>
</svg>
